Single_cell_stade_16_filtrage_fixées
…
Calculating cluster 5

# Tableau récapitulatif du nombre de cellules par cluster
print(table(Idents(seurat_obj_urchin_16f_bis)))

  0   1   2   3   4   5 
667 524 474 386 364  85 

Extraction des gènes marqueurs :

top40_16f_bis<- all_markers_16f_bis %>% group_by(cluster) %>% top_n(n = 40, wt = avg_log2FC)
print(top40_16f_bis)

# A tibble: 200 × 7
# Groups:   cluster [5]
      p_val avg_log2FC pct.1 pct.2 p_val_adj cluster gene      
      <dbl>      <dbl> <dbl> <dbl>     <dbl> <fct>   <chr>     
 1 1.46e-74      0.975 0.968 0.811  2.58e-70 1       Hook3.1   
 2 2.88e-50      0.810 0.939 0.807  5.10e-46 1       Suvar3-9.1
 3 2.57e-40      1.95  0.38  0.137  4.54e-36 1       SoxE      
 4 1.34e-35      0.797 0.849 0.668  2.36e-31 1       Stx1      
 5 1.63e-32      0.805 0.794 0.619  2.88e-28 1       SPU-017710
 6 2.15e-31      0.799 0.788 0.564  3.80e-27 1       Hnrph2L   
 7 2.94e-31      0.839 0.744 0.525  5.20e-27 1       Rreb1     
 8 3.96e-31      0.786 0.813 0.62   7.01e-27 1       Jip3-1    
 9 2.39e-28      0.841 0.721 0.509  4.22e-24 1       Mrps31L   
10 1.50e-24      0.982 0.574 0.366  2.65e-20 1       Hypp-105  
# ℹ 190 more rows
…
